<!DOCTYPE html>
<html class="js-focus-visible h-full" lang="ko"><head><meta charset="utf-8"/><title>OKKY - IT 행사</title><meta content="index,follow" name="robots"/><meta content="OKKY는 국내 최대 개발자 지식공유 플랫폼입니다. 개발자에게 필요한 기술 Q&amp;A, 아티클, 커리어, 네트워킹, 취업, IT행사를 지원합니다" name="description"/><meta content="summary_large_image" name="twitter:card"/><meta content="OKKY - IT 행사" property="og:title"/><meta content="OKKY는 국내 최대 개발자 지식공유 플랫폼입니다. 개발자에게 필요한 기술 Q&amp;A, 아티클, 커리어, 네트워킹, 취업, IT행사를 지원합니다" property="og:description"/><meta content="https://okky.kr/it" property="og:url"/><meta content="website" property="og:type"/><meta content="text/html; charset=utf-8" http-equiv="content-type"/><meta content="IE=edge,chrome=1" http-equiv="x-ua-compatible"/><meta content="width=device-width, initial-scale=1.0, user-scalable=no" name="viewport"/><meta content="https://okky.kr/apple-touch-icons/icon-144x144.png" name="msapplication-TileImage"/><meta content="#0090F9" name="msapplication-TileColor"/><meta content="#0090F9" name="theme-color"/><link href="/favicon.ico" rel="shortcut icon"/><link href="/apple-touch-icons/icon-57x57.png" rel="apple-touch-icon" sizes="57x57"/><link href="/apple-touch-icons/icon-60x60.png" rel="apple-touch-icon" sizes="60x60"/><link href="/apple-touch-icons/icon-72x72.png" rel="apple-touch-icon" sizes="72x72"/><link href="/apple-touch-icons/icon-76x76.png" rel="apple-touch-icon" sizes="76x76"/><link href="/apple-touch-icons/icon-114x114.png" rel="apple-touch-icon" sizes="114x114"/><link href="/apple-touch-icons/icon-120x120.png" rel="apple-touch-icon" sizes="120x120"/><link href="/apple-touch-icons/icon-144x144.png" rel="apple-touch-icon" sizes="144x144"/><link href="/apple-touch-icons/icon-152x152.png" rel="apple-touch-icon" sizes="152x152"/><link href="/apple-touch-icons/icon-180x180.png" rel="apple-touch-icon" sizes="180x180"/><link href="/splash-screens/iPhone_15_Pro_Max__iPhone_15_Plus__iPhone_14_Pro_Max_portrait.png" media="screen and (device-width: 430px) and (device-height: 932px) and (-webkit-device-pixel-ratio: 3) and (orientation: portrait)" rel="apple-touch-startup-image"/><link href="/splash-screens/iPhone_15_Pro__iPhone_15__iPhone_14_Pro_portrait.png" media="screen and (device-width: 393px) and (device-height: 852px) and (-webkit-device-pixel-ratio: 3) and (orientation: portrait)" rel="apple-touch-startup-image"/><link href="/splash-screens/iPhone_14_Plus__iPhone_13_Pro_Max__iPhone_12_Pro_Max_portrait.png" media="screen and (device-width: 428px) and (device-height: 926px) and (-webkit-device-pixel-ratio: 3) and (orientation: portrait)" rel="apple-touch-startup-image"/><link href="/splash-screens/iPhone_14__iPhone_13_Pro__iPhone_13__iPhone_12_Pro__iPhone_12_portrait.png" media="screen and (device-width: 390px) and (device-height: 844px) and (-webkit-device-pixel-ratio: 3) and (orientation: portrait)" rel="apple-touch-startup-image"/><link href="/splash-screens/iPhone_13_mini__iPhone_12_mini__iPhone_11_Pro__iPhone_XS__iPhone_X_portrait.png" media="screen and (device-width: 375px) and (device-height: 812px) and (-webkit-device-pixel-ratio: 3) and (orientation: portrait)" rel="apple-touch-startup-image"/><link href="/splash-screens/iPhone_11_Pro_Max__iPhone_XS_Max_portrait.png" media="screen and (device-width: 414px) and (device-height: 896px) and (-webkit-device-pixel-ratio: 3) and (orientation: portrait)" rel="apple-touch-startup-image"/><link href="/splash-screens/iPhone_11__iPhone_XR_portrait.png" media="screen and (device-width: 414px) and (device-height: 896px) and (-webkit-device-pixel-ratio: 2) and (orientation: portrait)" rel="apple-touch-startup-image"/><link href="/splash-screens/iPhone_8_Plus__iPhone_7_Plus__iPhone_6s_Plus__iPhone_6_Plus_portrait.png" media="screen and (device-width: 414px) and (device-height: 736px) and (-webkit-device-pixel-ratio: 3) and (orientation: portrait)" rel="apple-touch-startup-image"/><link href="/splash-screens/iPhone_8__iPhone_7__iPhone_6s__iPhone_6__4.7__iPhone_SE_portrait.png" media="screen and (device-width: 375px) and (device-height: 667px) and (-webkit-device-pixel-ratio: 2) and (orientation: portrait)" rel="apple-touch-startup-image"/><link href="/splash-screens/4__iPhone_SE__iPod_touch_5th_generation_and_later_portrait.png" media="screen and (device-width: 320px) and (device-height: 568px) and (-webkit-device-pixel-ratio: 2) and (orientation: portrait)" rel="apple-touch-startup-image"/><link href="/splash-screens/12.9__iPad_Pro_portrait.png" media="screen and (device-width: 1024px) and (device-height: 1366px) and (-webkit-device-pixel-ratio: 2) and (orientation: portrait)" rel="apple-touch-startup-image"/><link href="/splash-screens/11__iPad_Pro__10.5__iPad_Pro_portrait.png" media="screen and (device-width: 834px) and (device-height: 1194px) and (-webkit-device-pixel-ratio: 2) and (orientation: portrait)" rel="apple-touch-startup-image"/><link href="/splash-screens/10.9__iPad_Air_portrait.png" media="screen and (device-width: 820px) and (device-height: 1180px) and (-webkit-device-pixel-ratio: 2) and (orientation: portrait)" rel="apple-touch-startup-image"/><link href="/splash-screens/10.5__iPad_Air_portrait.png" media="screen and (device-width: 834px) and (device-height: 1112px) and (-webkit-device-pixel-ratio: 2) and (orientation: portrait)" rel="apple-touch-startup-image"/><link href="/splash-screens/10.2__iPad_portrait.png" media="screen and (device-width: 810px) and (device-height: 1080px) and (-webkit-device-pixel-ratio: 2) and (orientation: portrait)" rel="apple-touch-startup-image"/><link href="/splash-screens/9.7__iPad_Pro__7.9__iPad_mini__9.7__iPad_Air__9.7__iPad_portrait.png" media="screen and (device-width: 768px) and (device-height: 1024px) and (-webkit-device-pixel-ratio: 2) and (orientation: portrait)" rel="apple-touch-startup-image"/><link href="/splash-screens/8.3__iPad_Mini_portrait.png" media="screen and (device-width: 744px) and (device-height: 1133px) and (-webkit-device-pixel-ratio: 2) and (orientation: portrait)" rel="apple-touch-startup-image"/><meta content="42" name="next-head-count"/><base href="/"/><link href="/manifest.webmanifest" rel="manifest"/><link as="style" href="https://cdn.jsdelivr.net/gh/orioncactus/pretendard@v1.3.5/dist/web/static/pretendard-dynamic-subset.css" rel="stylesheet"/><script async="" crossorigin="anonymous" src="https://pagead2.googlesyndication.com/pagead/js/adsbygoogle.js?client=ca-pub-8103607814406874"></script><script crossorigin="anonymous" integrity="sha384-6MFdIr0zOira1CHQkedUqJVql0YtcZA1P0nbPrQYJXVJZUkTk/oX4U9GhUIs3/z8" src="https://t1.kakaocdn.net/kakao_js_sdk/2.6.0/kakao.min.js"></script><link as="style" href="/_next/static/css/7f8c5c20a887a3eb.css" rel="preload"/><link data-n-g="" href="/_next/static/css/7f8c5c20a887a3eb.css" rel="stylesheet"/><noscript data-n-css=""></noscript><script defer="" nomodule="" src="/_next/static/chunks/polyfills-c67a75d1b6f99dc8.js"></script><script data-nscript="beforeInteractive" defer="" src="/theme.js"></script><script defer="" src="/_next/static/chunks/webpack-8869c0e1500a5239.js"></script><script defer="" src="/_next/static/chunks/framework-66afa89ce7187f6f.js"></script><script defer="" src="/_next/static/chunks/main-828366d1b21fd4da.js"></script><script defer="" src="/_next/static/chunks/pages/_app-589999f1bdab238b.js"></script><script defer="" src="/_next/static/chunks/1395-af34461371a3b283.js"></script><script defer="" src="/_next/static/chunks/9983-7286c339a186a588.js"></script><script defer="" src="/_next/static/chunks/605-9032bb6fe5dff1da.js"></script><script defer="" src="/_next/static/chunks/3426-0c80cb1e8ef1600a.js"></script><script defer="" src="/_next/static/chunks/6191-efe9a6e9a2dbbabf.js"></script><script defer="" src="/_next/static/chunks/1070-f0792a3acd9398d8.js"></script><script defer="" src="/_next/static/chunks/3612-c7c29167cb21480b.js"></script><script defer="" src="/_next/static/chunks/pages/events/%5Btopic%5D-55b8da13149a4073.js"></script><script defer="" src="/_next/static/hpiAIXlOX9OgGb6Z4tSEB/_buildManifest.js"></script><script defer="" src="/_next/static/hpiAIXlOX9OgGb6Z4tSEB/_ssgManifest.js"></script></head><body class="flex h-full select-auto flex-col font-sans text-gray-900 antialiased dark:bg-gray-800 dark:text-gray-100"><div id="__next"></div><div id="portal-root"></div><script id="__NEXT_DATA__" type="application/json">{"props":{"pageProps":{"query":{"topic":"it","page":1},"result":{"content":[{"id":1502265,"title":"(Open UP) '24년도 오픈소스 컨트리뷰션 아카데미 멘티(참여형) 모집(~6.23)","tags":[{"id":2789,"name":"오픈소스"},{"id":6661,"name":"ai"},{"id":23346,"name":"컨트리뷰션"}],"viewCount":21,"voteCount":0,"assentCount":0,"dissentCount":0,"noteCount":1,"scrapCount":0,"enabled":true,"choice":false,"dateCreated":"2024-05-31T16:00:04","anonymity":false,"displayAuthor":{"id":140107,"nickname":"ouyz_22","picture":"2022/1649246017122.jpg","pictureType":"ATTACHED","activityPoint":30,"withdraw":false,"positionDutyName":null},"category":{"code":"it","labelCode":"it.label","defaultLabel":"IT 행사","url":null,"parent":null,"children":null,"useEvaluate":true,"useSelectSolution":false,"visible":true,"adminOnly":false}},{"id":1502177,"title":"AI 개발자들의 네티워킹 파티, '제3회 Beer Night'이 열립니다!","tags":[],"viewCount":65,"voteCount":0,"assentCount":0,"dissentCount":0,"noteCount":1,"scrapCount":0,"enabled":true,"choice":false,"dateCreated":"2024-05-30T22:20:17","anonymity":false,"displayAuthor":{"id":181638,"nickname":"ai-link","picture":"https://lh3.googleusercontent.com/a/ACg8ocKHsyDFIJSOZAvLk-adFfFRnDgbwmhscQdw1LAp_7L3=s96-c","pictureType":"GOOGLE","activityPoint":20,"withdraw":false,"positionDutyName":null},"category":{"code":"it","labelCode":"it.label","defaultLabel":"IT 행사","url":null,"parent":null,"children":null,"useEvaluate":true,"useSelectSolution":false,"visible":true,"adminOnly":false}},{"id":1502096,"title":"KDT과정!클라우드서비스 활용 자바 웹개발\u0026앱(코틀린) 개발자 양성과정 모집중","tags":[{"id":7,"name":"java"},{"id":126,"name":"웹개발자"},{"id":1570,"name":"앱개발"}],"viewCount":4,"voteCount":0,"assentCount":0,"dissentCount":0,"noteCount":0,"scrapCount":0,"enabled":true,"choice":false,"dateCreated":"2024-05-30T14:43:08","anonymity":false,"displayAuthor":{"id":164195,"nickname":"더조은컴퓨터아카데미","picture":"2024/1715833221913.png","pictureType":"ATTACHED","activityPoint":508,"withdraw":false,"positionDutyName":null},"category":{"code":"it","labelCode":"it.label","defaultLabel":"IT 행사","url":null,"parent":null,"children":null,"useEvaluate":true,"useSelectSolution":false,"visible":true,"adminOnly":false}},{"id":1502069,"title":"[추천대외활동]2024년 공개SW 개발자대회(~7/4)","tags":[],"viewCount":156,"voteCount":0,"assentCount":0,"dissentCount":0,"noteCount":1,"scrapCount":0,"enabled":true,"choice":false,"dateCreated":"2024-05-30T11:45:48","anonymity":false,"displayAuthor":{"id":48320,"nickname":"씽굿","picture":"7964f8437ac3ed8328ddda0c2c8bb2e8","pictureType":"GRAVATAR","activityPoint":2596,"withdraw":false,"positionDutyName":null},"category":{"code":"it","labelCode":"it.label","defaultLabel":"IT 행사","url":null,"parent":null,"children":null,"useEvaluate":true,"useSelectSolution":false,"visible":true,"adminOnly":false}},{"id":1501995,"title":"[예술경영지원센터] 2024 KOPIS 공연예술 데이터 포럼 개최 안내 (6/17)","tags":[{"id":204,"name":"빅데이터"},{"id":3952,"name":"포럼"},{"id":63726,"name":"예술경영지원센터"},{"id":4622,"name":"마이크로소프트"},{"id":66819,"name":"엘지유플러스"},{"id":4032,"name":"sk텔레콤"}],"viewCount":24,"voteCount":0,"assentCount":0,"dissentCount":0,"noteCount":0,"scrapCount":0,"enabled":true,"choice":false,"dateCreated":"2024-05-29T18:28:53","anonymity":false,"displayAuthor":{"id":105514,"nickname":"필더필","picture":"e227b259501cd15d0bd604eb8723aeb6","pictureType":"GRAVATAR","activityPoint":309,"withdraw":false,"positionDutyName":null},"category":{"code":"it","labelCode":"it.label","defaultLabel":"IT 행사","url":null,"parent":null,"children":null,"useEvaluate":true,"useSelectSolution":false,"visible":true,"adminOnly":false}},{"id":1501934,"title":"UX/UI 웹디자인 실무자 무료교육생 모집!","tags":[{"id":1897,"name":"웹디자인"},{"id":64043,"name":"웹디자인국비지원"},{"id":66815,"name":"동성인재개발교육원"},{"id":1176,"name":"ux"},{"id":376,"name":"ui"}],"viewCount":8,"voteCount":0,"assentCount":0,"dissentCount":0,"noteCount":0,"scrapCount":0,"enabled":true,"choice":false,"dateCreated":"2024-05-29T13:29:10","anonymity":false,"displayAuthor":{"id":180788,"nickname":"동성인재개발교육원","picture":"https://phinf.pstatic.net/contact/20230215_189/1676439531810RqDpr_PNG/%BA%ED%B7%CE%B1%D7.png","pictureType":"NAVER","activityPoint":40,"withdraw":false,"positionDutyName":null},"category":{"code":"it","labelCode":"it.label","defaultLabel":"IT 행사","url":null,"parent":null,"children":null,"useEvaluate":true,"useSelectSolution":false,"visible":true,"adminOnly":false}},{"id":1501929,"title":"IT코딩 첫경험자 맞춤훈련! [전액무료]","tags":[{"id":7,"name":"java"},{"id":29004,"name":"부산it학원"},{"id":10608,"name":"국비학원"},{"id":38914,"name":"it국비학원"},{"id":66815,"name":"동성인재개발교육원"}],"viewCount":8,"voteCount":0,"assentCount":0,"dissentCount":0,"noteCount":0,"scrapCount":0,"enabled":true,"choice":false,"dateCreated":"2024-05-29T13:20:30","anonymity":false,"displayAuthor":{"id":180788,"nickname":"동성인재개발교육원","picture":"https://phinf.pstatic.net/contact/20230215_189/1676439531810RqDpr_PNG/%BA%ED%B7%CE%B1%D7.png","pictureType":"NAVER","activityPoint":40,"withdraw":false,"positionDutyName":null},"category":{"code":"it","labelCode":"it.label","defaultLabel":"IT 행사","url":null,"parent":null,"children":null,"useEvaluate":true,"useSelectSolution":false,"visible":true,"adminOnly":false}},{"id":1501928,"title":"물류무역 취업률100% 달성 (HRD-net기준) 교육생 모집","tags":[{"id":10608,"name":"국비학원"},{"id":23544,"name":"국제무역사"},{"id":23808,"name":"무역영어"}],"viewCount":7,"voteCount":0,"assentCount":0,"dissentCount":0,"noteCount":0,"scrapCount":0,"enabled":true,"choice":false,"dateCreated":"2024-05-29T13:18:19","anonymity":false,"displayAuthor":{"id":180788,"nickname":"동성인재개발교육원","picture":"https://phinf.pstatic.net/contact/20230215_189/1676439531810RqDpr_PNG/%BA%ED%B7%CE%B1%D7.png","pictureType":"NAVER","activityPoint":40,"withdraw":false,"positionDutyName":null},"category":{"code":"it","labelCode":"it.label","defaultLabel":"IT 행사","url":null,"parent":null,"children":null,"useEvaluate":true,"useSelectSolution":false,"visible":true,"adminOnly":false}},{"id":1501854,"title":"세계 표준 아키텍처(EA) 표준강의 ,세계유일 Query refactoring MSSQL튜닝강의,WPF,MAUI 자막제공되는 인강!","tags":[{"id":62186,"name":"enterprisearchitecture"},{"id":17127,"name":"wpf강의"},{"id":29137,"name":"전자정부프레임워크강의"},{"id":57910,"name":"uml인강"},{"id":3844,"name":"데이터엔지니어"},{"id":31781,"name":"윈폼강의"},{"id":29069,"name":"오라클인강"},{"id":51209,"name":"클래스다이어그램"},{"id":36477,"name":"maui"},{"id":33849,"name":"mssql강의"}],"viewCount":34,"voteCount":0,"assentCount":0,"dissentCount":0,"noteCount":0,"scrapCount":0,"enabled":true,"choice":false,"dateCreated":"2024-05-28T19:08:21","anonymity":false,"displayAuthor":{"id":132022,"nickname":"취업의모든것　","picture":"6d6acdaa9c24d113774292c4097e75e8","pictureType":"GRAVATAR","activityPoint":11118,"withdraw":false,"positionDutyName":null},"category":{"code":"it","labelCode":"it.label","defaultLabel":"IT 행사","url":null,"parent":null,"children":null,"useEvaluate":true,"useSelectSolution":false,"visible":true,"adminOnly":false}},{"id":1501840,"title":"[선착순 무료] 우아한형제들 PM의 합격 전략 특강 / 네·카 합격 포폴 공개!","tags":[{"id":803,"name":"pm"},{"id":7689,"name":"부트캠프"},{"id":141,"name":"교육"},{"id":2559,"name":"스펙"}],"viewCount":52,"voteCount":0,"assentCount":0,"dissentCount":0,"noteCount":1,"scrapCount":0,"enabled":true,"choice":false,"dateCreated":"2024-05-28T17:33:03","anonymity":false,"displayAuthor":{"id":181948,"nickname":"데이원컴퍼니","picture":"28e515221a6a712b056cf145c69ea62e","pictureType":"GRAVATAR","activityPoint":46,"withdraw":false,"positionDutyName":null},"category":{"code":"it","labelCode":"it.label","defaultLabel":"IT 행사","url":null,"parent":null,"children":null,"useEvaluate":true,"useSelectSolution":false,"visible":true,"adminOnly":false}},{"id":1501662,"title":"서울시 관광안내 오류 표지판 국민 점검 캠페인 안내","tags":[{"id":22021,"name":"관광"},{"id":16455,"name":"외국어"},{"id":66800,"name":"시민신고"}],"viewCount":22,"voteCount":0,"assentCount":0,"dissentCount":0,"noteCount":1,"scrapCount":0,"enabled":true,"choice":false,"dateCreated":"2024-05-27T18:28:32","anonymity":false,"displayAuthor":{"id":186094,"nickname":"양인하","picture":"https://lh3.googleusercontent.com/a/ACg8ocLm07yD9zKWq1IlkHqR8LFVH1QcIhvSir0GgWS-t_zhaAD4rw=s96-c","pictureType":"GOOGLE","activityPoint":10,"withdraw":false,"positionDutyName":null},"category":{"code":"it","labelCode":"it.label","defaultLabel":"IT 행사","url":null,"parent":null,"children":null,"useEvaluate":true,"useSelectSolution":false,"visible":true,"adminOnly":false}},{"id":1501611,"title":"[해커톤 모집] HABTHON 2024ㅣ합톤 2024 모집 공고","tags":[{"id":4587,"name":"해커톤"},{"id":21270,"name":"데모데이"},{"id":66799,"name":"스타트업행사"}],"viewCount":21,"voteCount":0,"assentCount":0,"dissentCount":0,"noteCount":0,"scrapCount":0,"enabled":true,"choice":false,"dateCreated":"2024-05-27T14:54:29","anonymity":false,"displayAuthor":{"id":185197,"nickname":"춘천시공연예술창업지원센터","picture":"2024/1715663480583.jpg","pictureType":"ATTACHED","activityPoint":20,"withdraw":false,"positionDutyName":null},"category":{"code":"it","labelCode":"it.label","defaultLabel":"IT 행사","url":null,"parent":null,"children":null,"useEvaluate":true,"useSelectSolution":false,"visible":true,"adminOnly":false}},{"id":1501608,"title":"[네카라쿠배 백엔드 취업 무료 특강] 네카라쿠배 백엔드 취업 이야기 \u0026 취업준비 Q\u0026A","tags":[{"id":1571,"name":"백엔드"},{"id":9648,"name":"무료세미나"},{"id":2366,"name":"신입개발자"}],"viewCount":39,"voteCount":0,"assentCount":0,"dissentCount":0,"noteCount":0,"scrapCount":0,"enabled":true,"choice":false,"dateCreated":"2024-05-27T14:45:16","anonymity":false,"displayAuthor":{"id":180687,"nickname":"soeunbakday1","picture":"https://lh3.googleusercontent.com/a/ACg8ocIBwDAPJA8FTAX4VIvB-1hPGEzVfWUoKpmybnxxutH1=s96-c","pictureType":"GOOGLE","activityPoint":50,"withdraw":false,"positionDutyName":null},"category":{"code":"it","labelCode":"it.label","defaultLabel":"IT 행사","url":null,"parent":null,"children":null,"useEvaluate":true,"useSelectSolution":false,"visible":true,"adminOnly":false}},{"id":1501588,"title":"[무료 Live 웨비나] SW 취준생을 위한 '백엔드 개발자 학습 가이드'","tags":[{"id":1571,"name":"백엔드"},{"id":34685,"name":"Webinar"}],"viewCount":24,"voteCount":0,"assentCount":0,"dissentCount":0,"noteCount":0,"scrapCount":0,"enabled":true,"choice":false,"dateCreated":"2024-05-27T12:56:08","anonymity":false,"displayAuthor":{"id":170690,"nickname":"SW/AI 뉴스레터 - 모두레터","picture":"2024/1713150752834.png","pictureType":"ATTACHED","activityPoint":456,"withdraw":false,"positionDutyName":null},"category":{"code":"it","labelCode":"it.label","defaultLabel":"IT 행사","url":null,"parent":null,"children":null,"useEvaluate":true,"useSelectSolution":false,"visible":true,"adminOnly":false}},{"id":1501583,"title":"[모두레터] LLM 안에서는 무슨 일이 일어날까?","tags":[{"id":62623,"name":"llm"},{"id":65998,"name":"claude"},{"id":65052,"name":"gemini"}],"viewCount":26,"voteCount":0,"assentCount":0,"dissentCount":0,"noteCount":0,"scrapCount":0,"enabled":true,"choice":false,"dateCreated":"2024-05-27T12:13:14","anonymity":false,"displayAuthor":{"id":170690,"nickname":"SW/AI 뉴스레터 - 모두레터","picture":"2024/1713150752834.png","pictureType":"ATTACHED","activityPoint":456,"withdraw":false,"positionDutyName":null},"category":{"code":"it","labelCode":"it.label","defaultLabel":"IT 행사","url":null,"parent":null,"children":null,"useEvaluate":true,"useSelectSolution":false,"visible":true,"adminOnly":false}},{"id":1501402,"title":"[5월 밋업] IT 커뮤니티/동아리 운영진 밋업 (~5/31까지)","tags":[{"id":599,"name":"커뮤니티"},{"id":9022,"name":"동아리"},{"id":17011,"name":"밋업"}],"viewCount":53,"voteCount":0,"assentCount":0,"dissentCount":0,"noteCount":0,"scrapCount":0,"enabled":true,"choice":false,"dateCreated":"2024-05-24T18:32:54","anonymity":false,"displayAuthor":{"id":183551,"nickname":"엘리스트랙 KDT ","picture":"https://lh3.googleusercontent.com/a/ACg8ocL20if_UTfneaOcyFLS_nJ28Anv-ZeqYReSN3CnjDPyKxoJrQ=s96-c","pictureType":"GOOGLE","activityPoint":20,"withdraw":false,"positionDutyName":null},"category":{"code":"it","labelCode":"it.label","defaultLabel":"IT 행사","url":null,"parent":null,"children":null,"useEvaluate":true,"useSelectSolution":false,"visible":true,"adminOnly":false}},{"id":1501229,"title":"KotlinConf'24 - Keynote","tags":[{"id":66774,"name":"kotlinconf"},{"id":2693,"name":"kotlin"}],"viewCount":28,"voteCount":0,"assentCount":0,"dissentCount":0,"noteCount":0,"scrapCount":0,"enabled":true,"choice":false,"dateCreated":"2024-05-23T16:36:19","anonymity":false,"displayAuthor":{"id":163,"nickname":"kenu","picture":"2024/1712988702332.jpg","pictureType":"ATTACHED","activityPoint":86629,"withdraw":false,"positionDutyName":"풀스택개발"},"category":{"code":"it","labelCode":"it.label","defaultLabel":"IT 행사","url":null,"parent":null,"children":null,"useEvaluate":true,"useSelectSolution":false,"visible":true,"adminOnly":false}},{"id":1500916,"title":"[무료특강] 클라우드 현업 전문가 멘토링 특강","tags":[{"id":66509,"name":"메타넷티플랫폼"},{"id":4622,"name":"마이크로소프트"},{"id":911,"name":"클라우드"},{"id":4484,"name":"azure"},{"id":22173,"name":"무료특강"}],"viewCount":14,"voteCount":0,"assentCount":0,"dissentCount":0,"noteCount":0,"scrapCount":0,"enabled":true,"choice":false,"dateCreated":"2024-05-21T17:38:16","anonymity":false,"displayAuthor":{"id":171933,"nickname":"IGM DTT","picture":"5c299207db18ef02adfee6c05cf84840","pictureType":"GRAVATAR","activityPoint":60,"withdraw":false,"positionDutyName":null},"category":{"code":"it","labelCode":"it.label","defaultLabel":"IT 행사","url":null,"parent":null,"children":null,"useEvaluate":true,"useSelectSolution":false,"visible":true,"adminOnly":false}},{"id":1500915,"title":"[커피쿠폰] 발표를 한번이라도 해보신 분들 있으신가요?","tags":[{"id":43646,"name":"소프트스킬"},{"id":12838,"name":"발표"},{"id":30753,"name":"말하기"}],"viewCount":90,"voteCount":0,"assentCount":0,"dissentCount":0,"noteCount":2,"scrapCount":0,"enabled":true,"choice":false,"dateCreated":"2024-05-21T17:31:38","anonymity":false,"displayAuthor":{"id":185151,"nickname":"SWTT","picture":"cc30cc73a234019568c494ade04ec56d","pictureType":"GRAVATAR","activityPoint":18,"withdraw":false,"positionDutyName":null},"category":{"code":"it","labelCode":"it.label","defaultLabel":"IT 행사","url":null,"parent":null,"children":null,"useEvaluate":true,"useSelectSolution":false,"visible":true,"adminOnly":false}},{"id":1500871,"title":"[추천공모전] 제3회 고용노동 공공데이터 활용 공모전(~07.21)","tags":[{"id":371,"name":"공모전"},{"id":8436,"name":"고용노동부"},{"id":4495,"name":"공공데이터"},{"id":971,"name":"아이티뱅크"},{"id":7511,"name":"데이터분석"}],"viewCount":27,"voteCount":0,"assentCount":0,"dissentCount":0,"noteCount":1,"scrapCount":0,"enabled":true,"choice":false,"dateCreated":"2024-05-21T14:36:24","anonymity":false,"displayAuthor":{"id":48320,"nickname":"씽굿","picture":"7964f8437ac3ed8328ddda0c2c8bb2e8","pictureType":"GRAVATAR","activityPoint":2596,"withdraw":false,"positionDutyName":null},"category":{"code":"it","labelCode":"it.label","defaultLabel":"IT 행사","url":null,"parent":null,"children":null,"useEvaluate":true,"useSelectSolution":false,"visible":true,"adminOnly":false}}],"pageable":{"pageNumber":0,"pageSize":20,"sort":{"empty":false,"sorted":true,"unsorted":false},"offset":0,"paged":true,"unpaged":false},"totalPages":122,"totalElements":2432,"last":false,"size":20,"number":0,"sort":{"empty":false,"sorted":true,"unsorted":false},"numberOfElements":20,"first":true,"empty":false},"SEO":{"title":"OKKY - IT 행사","description":"OKKY는 국내 최대 개발자 지식공유 플랫폼입니다. 개발자에게 필요한 기술 Q\u0026A, 아티클, 커리어, 네트워킹, 취업, IT행사를 지원합니다","additionalMetaTags":[{"httpEquiv":"content-type","content":"text/html; charset=UTF-8"},{"httpEquiv":"x-ua-compatible","content":"IE=edge,chrome=1"},{"name":"viewport","content":"width=device-width, initial-scale=1.0, user-scalable=no"},{"name":"msapplication-TileImage","content":"https://okky.kr/apple-touch-icons/icon-144x144.png"},{"name":"msapplication-TileColor","content":"#0090F9"},{"name":"theme-color","content":"#0090F9"}],"additionalLinkTags":[{"rel":"shortcut icon","href":"/favicon.ico"},{"rel":"apple-touch-icon","sizes":"57x57","href":"/apple-touch-icons/icon-57x57.png"},{"rel":"apple-touch-icon","sizes":"60x60","href":"/apple-touch-icons/icon-60x60.png"},{"rel":"apple-touch-icon","sizes":"72x72","href":"/apple-touch-icons/icon-72x72.png"},{"rel":"apple-touch-icon","sizes":"76x76","href":"/apple-touch-icons/icon-76x76.png"},{"rel":"apple-touch-icon","sizes":"114x114","href":"/apple-touch-icons/icon-114x114.png"},{"rel":"apple-touch-icon","sizes":"120x120","href":"/apple-touch-icons/icon-120x120.png"},{"rel":"apple-touch-icon","sizes":"144x144","href":"/apple-touch-icons/icon-144x144.png"},{"rel":"apple-touch-icon","sizes":"152x152","href":"/apple-touch-icons/icon-152x152.png"},{"rel":"apple-touch-icon","sizes":"180x180","href":"/apple-touch-icons/icon-180x180.png"},{"rel":"apple-touch-startup-image","media":"screen and (device-width: 430px) and (device-height: 932px) and (-webkit-device-pixel-ratio: 3) and (orientation: portrait)","href":"/splash-screens/iPhone_15_Pro_Max__iPhone_15_Plus__iPhone_14_Pro_Max_portrait.png"},{"rel":"apple-touch-startup-image","media":"screen and (device-width: 393px) and (device-height: 852px) and (-webkit-device-pixel-ratio: 3) and (orientation: portrait)","href":"/splash-screens/iPhone_15_Pro__iPhone_15__iPhone_14_Pro_portrait.png"},{"rel":"apple-touch-startup-image","media":"screen and (device-width: 428px) and (device-height: 926px) and (-webkit-device-pixel-ratio: 3) and (orientation: portrait)","href":"/splash-screens/iPhone_14_Plus__iPhone_13_Pro_Max__iPhone_12_Pro_Max_portrait.png"},{"rel":"apple-touch-startup-image","media":"screen and (device-width: 390px) and (device-height: 844px) and (-webkit-device-pixel-ratio: 3) and (orientation: portrait)","href":"/splash-screens/iPhone_14__iPhone_13_Pro__iPhone_13__iPhone_12_Pro__iPhone_12_portrait.png"},{"rel":"apple-touch-startup-image","media":"screen and (device-width: 375px) and (device-height: 812px) and (-webkit-device-pixel-ratio: 3) and (orientation: portrait)","href":"/splash-screens/iPhone_13_mini__iPhone_12_mini__iPhone_11_Pro__iPhone_XS__iPhone_X_portrait.png"},{"rel":"apple-touch-startup-image","media":"screen and (device-width: 414px) and (device-height: 896px) and (-webkit-device-pixel-ratio: 3) and (orientation: portrait)","href":"/splash-screens/iPhone_11_Pro_Max__iPhone_XS_Max_portrait.png"},{"rel":"apple-touch-startup-image","media":"screen and (device-width: 414px) and (device-height: 896px) and (-webkit-device-pixel-ratio: 2) and (orientation: portrait)","href":"/splash-screens/iPhone_11__iPhone_XR_portrait.png"},{"rel":"apple-touch-startup-image","media":"screen and (device-width: 414px) and (device-height: 736px) and (-webkit-device-pixel-ratio: 3) and (orientation: portrait)","href":"/splash-screens/iPhone_8_Plus__iPhone_7_Plus__iPhone_6s_Plus__iPhone_6_Plus_portrait.png"},{"rel":"apple-touch-startup-image","media":"screen and (device-width: 375px) and (device-height: 667px) and (-webkit-device-pixel-ratio: 2) and (orientation: portrait)","href":"/splash-screens/iPhone_8__iPhone_7__iPhone_6s__iPhone_6__4.7__iPhone_SE_portrait.png"},{"rel":"apple-touch-startup-image","media":"screen and (device-width: 320px) and (device-height: 568px) and (-webkit-device-pixel-ratio: 2) and (orientation: portrait)","href":"/splash-screens/4__iPhone_SE__iPod_touch_5th_generation_and_later_portrait.png"},{"rel":"apple-touch-startup-image","media":"screen and (device-width: 1024px) and (device-height: 1366px) and (-webkit-device-pixel-ratio: 2) and (orientation: portrait)","href":"/splash-screens/12.9__iPad_Pro_portrait.png"},{"rel":"apple-touch-startup-image","media":"screen and (device-width: 834px) and (device-height: 1194px) and (-webkit-device-pixel-ratio: 2) and (orientation: portrait)","href":"/splash-screens/11__iPad_Pro__10.5__iPad_Pro_portrait.png"},{"rel":"apple-touch-startup-image","media":"screen and (device-width: 820px) and (device-height: 1180px) and (-webkit-device-pixel-ratio: 2) and (orientation: portrait)","href":"/splash-screens/10.9__iPad_Air_portrait.png"},{"rel":"apple-touch-startup-image","media":"screen and (device-width: 834px) and (device-height: 1112px) and (-webkit-device-pixel-ratio: 2) and (orientation: portrait)","href":"/splash-screens/10.5__iPad_Air_portrait.png"},{"rel":"apple-touch-startup-image","media":"screen and (device-width: 810px) and (device-height: 1080px) and (-webkit-device-pixel-ratio: 2) and (orientation: portrait)","href":"/splash-screens/10.2__iPad_portrait.png"},{"rel":"apple-touch-startup-image","media":"screen and (device-width: 768px) and (device-height: 1024px) and (-webkit-device-pixel-ratio: 2) and (orientation: portrait)","href":"/splash-screens/9.7__iPad_Pro__7.9__iPad_mini__9.7__iPad_Air__9.7__iPad_portrait.png"},{"rel":"apple-touch-startup-image","media":"screen and (device-width: 744px) and (device-height: 1133px) and (-webkit-device-pixel-ratio: 2) and (orientation: portrait)","href":"/splash-screens/8.3__iPad_Mini_portrait.png"}],"openGraph":{"type":"website","title":"OKKY - IT 행사","url":"https://okky.kr/it"},"twitter":{"cardType":"summary_large_image"}}},"__N_SSP":true},"page":"/events/[topic]","query":{"topic":"it"},"buildId":"hpiAIXlOX9OgGb6Z4tSEB","isFallback":false,"gssp":true,"appGip":true,"scriptLoader":[{"strategy":"afterInteractive","src":"https://www.googletagmanager.com/gtag/js?id=G-YB6VRG1VMM"},{"strategy":"afterInteractive","dangerouslySetInnerHTML":{"__html":"\n            window.dataLayer = window.dataLayer || [];\n            function gtag(){dataLayer.push(arguments);}\n            gtag('js', new Date());\n            gtag('config', 'G-YB6VRG1VMM');\n          "}}]}</script></body></html>