<!DOCTYPE html>
<html class="js-focus-visible h-full" lang="ko"><head><meta charset="utf-8"/><title>OKKY - IT 행사</title><meta content="index,follow" name="robots"/><meta content="OKKY는 국내 최대 개발자 지식공유 플랫폼입니다. 개발자에게 필요한 기술 Q&amp;A, 아티클, 커리어, 네트워킹, 취업, IT행사를 지원합니다" name="description"/><meta content="summary_large_image" name="twitter:card"/><meta content="OKKY - IT 행사" property="og:title"/><meta content="OKKY는 국내 최대 개발자 지식공유 플랫폼입니다. 개발자에게 필요한 기술 Q&amp;A, 아티클, 커리어, 네트워킹, 취업, IT행사를 지원합니다" property="og:description"/><meta content="https://okky.kr/it" property="og:url"/><meta content="website" property="og:type"/><meta content="text/html; charset=utf-8" http-equiv="content-type"/><meta content="IE=edge,chrome=1" http-equiv="x-ua-compatible"/><meta content="width=device-width, initial-scale=1.0, user-scalable=no" name="viewport"/><meta content="https://okky.kr/apple-touch-icons/icon-144x144.png" name="msapplication-TileImage"/><meta content="#0090F9" name="msapplication-TileColor"/><meta content="#0090F9" name="theme-color"/><link href="/favicon.ico" rel="shortcut icon"/><link href="/apple-touch-icons/icon-57x57.png" rel="apple-touch-icon" sizes="57x57"/><link href="/apple-touch-icons/icon-60x60.png" rel="apple-touch-icon" sizes="60x60"/><link href="/apple-touch-icons/icon-72x72.png" rel="apple-touch-icon" sizes="72x72"/><link href="/apple-touch-icons/icon-76x76.png" rel="apple-touch-icon" sizes="76x76"/><link href="/apple-touch-icons/icon-114x114.png" rel="apple-touch-icon" sizes="114x114"/><link href="/apple-touch-icons/icon-120x120.png" rel="apple-touch-icon" sizes="120x120"/><link href="/apple-touch-icons/icon-144x144.png" rel="apple-touch-icon" sizes="144x144"/><link href="/apple-touch-icons/icon-152x152.png" rel="apple-touch-icon" sizes="152x152"/><link href="/apple-touch-icons/icon-180x180.png" rel="apple-touch-icon" sizes="180x180"/><link href="/splash-screens/iPhone_15_Pro_Max__iPhone_15_Plus__iPhone_14_Pro_Max_portrait.png" media="screen and (device-width: 430px) and (device-height: 932px) and (-webkit-device-pixel-ratio: 3) and (orientation: portrait)" rel="apple-touch-startup-image"/><link href="/splash-screens/iPhone_15_Pro__iPhone_15__iPhone_14_Pro_portrait.png" media="screen and (device-width: 393px) and (device-height: 852px) and (-webkit-device-pixel-ratio: 3) and (orientation: portrait)" rel="apple-touch-startup-image"/><link href="/splash-screens/iPhone_14_Plus__iPhone_13_Pro_Max__iPhone_12_Pro_Max_portrait.png" media="screen and (device-width: 428px) and (device-height: 926px) and (-webkit-device-pixel-ratio: 3) and (orientation: portrait)" rel="apple-touch-startup-image"/><link href="/splash-screens/iPhone_14__iPhone_13_Pro__iPhone_13__iPhone_12_Pro__iPhone_12_portrait.png" media="screen and (device-width: 390px) and (device-height: 844px) and (-webkit-device-pixel-ratio: 3) and (orientation: portrait)" rel="apple-touch-startup-image"/><link href="/splash-screens/iPhone_13_mini__iPhone_12_mini__iPhone_11_Pro__iPhone_XS__iPhone_X_portrait.png" media="screen and (device-width: 375px) and (device-height: 812px) and (-webkit-device-pixel-ratio: 3) and (orientation: portrait)" rel="apple-touch-startup-image"/><link href="/splash-screens/iPhone_11_Pro_Max__iPhone_XS_Max_portrait.png" media="screen and (device-width: 414px) and (device-height: 896px) and (-webkit-device-pixel-ratio: 3) and (orientation: portrait)" rel="apple-touch-startup-image"/><link href="/splash-screens/iPhone_11__iPhone_XR_portrait.png" media="screen and (device-width: 414px) and (device-height: 896px) and (-webkit-device-pixel-ratio: 2) and (orientation: portrait)" rel="apple-touch-startup-image"/><link href="/splash-screens/iPhone_8_Plus__iPhone_7_Plus__iPhone_6s_Plus__iPhone_6_Plus_portrait.png" media="screen and (device-width: 414px) and (device-height: 736px) and (-webkit-device-pixel-ratio: 3) and (orientation: portrait)" rel="apple-touch-startup-image"/><link href="/splash-screens/iPhone_8__iPhone_7__iPhone_6s__iPhone_6__4.7__iPhone_SE_portrait.png" media="screen and (device-width: 375px) and (device-height: 667px) and (-webkit-device-pixel-ratio: 2) and (orientation: portrait)" rel="apple-touch-startup-image"/><link href="/splash-screens/4__iPhone_SE__iPod_touch_5th_generation_and_later_portrait.png" media="screen and (device-width: 320px) and (device-height: 568px) and (-webkit-device-pixel-ratio: 2) and (orientation: portrait)" rel="apple-touch-startup-image"/><link href="/splash-screens/12.9__iPad_Pro_portrait.png" media="screen and (device-width: 1024px) and (device-height: 1366px) and (-webkit-device-pixel-ratio: 2) and (orientation: portrait)" rel="apple-touch-startup-image"/><link href="/splash-screens/11__iPad_Pro__10.5__iPad_Pro_portrait.png" media="screen and (device-width: 834px) and (device-height: 1194px) and (-webkit-device-pixel-ratio: 2) and (orientation: portrait)" rel="apple-touch-startup-image"/><link href="/splash-screens/10.9__iPad_Air_portrait.png" media="screen and (device-width: 820px) and (device-height: 1180px) and (-webkit-device-pixel-ratio: 2) and (orientation: portrait)" rel="apple-touch-startup-image"/><link href="/splash-screens/10.5__iPad_Air_portrait.png" media="screen and (device-width: 834px) and (device-height: 1112px) and (-webkit-device-pixel-ratio: 2) and (orientation: portrait)" rel="apple-touch-startup-image"/><link href="/splash-screens/10.2__iPad_portrait.png" media="screen and (device-width: 810px) and (device-height: 1080px) and (-webkit-device-pixel-ratio: 2) and (orientation: portrait)" rel="apple-touch-startup-image"/><link href="/splash-screens/9.7__iPad_Pro__7.9__iPad_mini__9.7__iPad_Air__9.7__iPad_portrait.png" media="screen and (device-width: 768px) and (device-height: 1024px) and (-webkit-device-pixel-ratio: 2) and (orientation: portrait)" rel="apple-touch-startup-image"/><link href="/splash-screens/8.3__iPad_Mini_portrait.png" media="screen and (device-width: 744px) and (device-height: 1133px) and (-webkit-device-pixel-ratio: 2) and (orientation: portrait)" rel="apple-touch-startup-image"/><meta content="42" name="next-head-count"/><base href="/"/><link href="/manifest.webmanifest" rel="manifest"/><link as="style" href="https://cdn.jsdelivr.net/gh/orioncactus/pretendard@v1.3.5/dist/web/static/pretendard-dynamic-subset.css" rel="stylesheet"/><script async="" crossorigin="anonymous" src="https://pagead2.googlesyndication.com/pagead/js/adsbygoogle.js?client=ca-pub-8103607814406874"></script><script crossorigin="anonymous" integrity="sha384-6MFdIr0zOira1CHQkedUqJVql0YtcZA1P0nbPrQYJXVJZUkTk/oX4U9GhUIs3/z8" src="https://t1.kakaocdn.net/kakao_js_sdk/2.6.0/kakao.min.js"></script><link as="style" href="/_next/static/css/7f8c5c20a887a3eb.css" rel="preload"/><link data-n-g="" href="/_next/static/css/7f8c5c20a887a3eb.css" rel="stylesheet"/><noscript data-n-css=""></noscript><script defer="" nomodule="" src="/_next/static/chunks/polyfills-c67a75d1b6f99dc8.js"></script><script data-nscript="beforeInteractive" defer="" src="/theme.js"></script><script defer="" src="/_next/static/chunks/webpack-8869c0e1500a5239.js"></script><script defer="" src="/_next/static/chunks/framework-66afa89ce7187f6f.js"></script><script defer="" src="/_next/static/chunks/main-828366d1b21fd4da.js"></script><script defer="" src="/_next/static/chunks/pages/_app-589999f1bdab238b.js"></script><script defer="" src="/_next/static/chunks/1395-af34461371a3b283.js"></script><script defer="" src="/_next/static/chunks/9983-7286c339a186a588.js"></script><script defer="" src="/_next/static/chunks/605-9032bb6fe5dff1da.js"></script><script defer="" src="/_next/static/chunks/3426-0c80cb1e8ef1600a.js"></script><script defer="" src="/_next/static/chunks/6191-efe9a6e9a2dbbabf.js"></script><script defer="" src="/_next/static/chunks/1070-f0792a3acd9398d8.js"></script><script defer="" src="/_next/static/chunks/3612-c7c29167cb21480b.js"></script><script defer="" src="/_next/static/chunks/pages/events/%5Btopic%5D-55b8da13149a4073.js"></script><script defer="" src="/_next/static/hpiAIXlOX9OgGb6Z4tSEB/_buildManifest.js"></script><script defer="" src="/_next/static/hpiAIXlOX9OgGb6Z4tSEB/_ssgManifest.js"></script></head><body class="flex h-full select-auto flex-col font-sans text-gray-900 antialiased dark:bg-gray-800 dark:text-gray-100"><div id="__next"></div><div id="portal-root"></div><script id="__NEXT_DATA__" type="application/json">{"props":{"pageProps":{"query":{"topic":"it","page":1},"result":{"content":[{"id":1500109,"title":"HABTHON 2024ㅣ합톤 2024 모집 공고","tags":[{"id":4587,"name":"해커톤"},{"id":25739,"name":"해커톤대회"},{"id":37180,"name":"개발비지원"}],"viewCount":35,"voteCount":0,"assentCount":0,"dissentCount":0,"noteCount":1,"scrapCount":0,"enabled":true,"choice":false,"dateCreated":"2024-05-14T14:10:57","anonymity":false,"displayAuthor":{"id":185197,"nickname":"춘천시공연예술창업지원센터","picture":"2024/1715663480583.jpg","pictureType":"ATTACHED","activityPoint":10,"withdraw":false,"positionDutyName":null},"category":{"code":"it","labelCode":"it.label","defaultLabel":"IT 행사","url":null,"parent":null,"children":null,"useEvaluate":true,"useSelectSolution":false,"visible":true,"adminOnly":false}},{"id":1500080,"title":"현직에 계신 분들의 도움이 필요합니다!! 설문조사 요청드립니다!","tags":[],"viewCount":6,"voteCount":0,"assentCount":0,"dissentCount":0,"noteCount":0,"scrapCount":0,"enabled":true,"choice":false,"dateCreated":"2024-05-14T11:28:50","anonymity":false,"displayAuthor":{"id":148510,"nickname":"mrc_campus_D","picture":"2023/1693893581788.png","pictureType":"ATTACHED","activityPoint":1558,"withdraw":false,"positionDutyName":null},"category":{"code":"it","labelCode":"it.label","defaultLabel":"IT 행사","url":null,"parent":null,"children":null,"useEvaluate":true,"useSelectSolution":false,"visible":true,"adminOnly":false}},{"id":1500078,"title":"현직에 계신 분들의 도움이 필요합니다!! 설문조사 요청드립니다!","tags":[],"viewCount":33,"voteCount":0,"assentCount":0,"dissentCount":0,"noteCount":1,"scrapCount":0,"enabled":true,"choice":false,"dateCreated":"2024-05-14T11:27:55","anonymity":false,"displayAuthor":{"id":148510,"nickname":"mrc_campus_D","picture":"2023/1693893581788.png","pictureType":"ATTACHED","activityPoint":1558,"withdraw":false,"positionDutyName":null},"category":{"code":"it","labelCode":"it.label","defaultLabel":"IT 행사","url":null,"parent":null,"children":null,"useEvaluate":true,"useSelectSolution":false,"visible":true,"adminOnly":false}},{"id":1499979,"title":"Gen AI 춘추전국시대,  LLM 시장 전망과 기업의 도입 전략","tags":[{"id":6661,"name":"ai"},{"id":4468,"name":"bi"},{"id":18587,"name":"데이터활용"}],"viewCount":82,"voteCount":0,"assentCount":0,"dissentCount":0,"noteCount":1,"scrapCount":0,"enabled":true,"choice":false,"dateCreated":"2024-05-13T15:55:42","anonymity":false,"displayAuthor":{"id":99821,"nickname":"한국정보산업연합회","picture":"3bab88c86a17cf6912735d49c6ae431b","pictureType":"GRAVATAR","activityPoint":194,"withdraw":false,"positionDutyName":null},"category":{"code":"it","labelCode":"it.label","defaultLabel":"IT 행사","url":null,"parent":null,"children":null,"useEvaluate":true,"useSelectSolution":false,"visible":true,"adminOnly":false}},{"id":1499923,"title":"2024 크리에이티브 디렉터 세미나(06.19)_AI시대, 디자이너 혁신과 생존전략","tags":[{"id":66672,"name":"크리에이티브디렉터"},{"id":66673,"name":"디자인트렌드"},{"id":66674,"name":"디자인세미나"},{"id":4750,"name":"크리에이티브커먼즈"},{"id":1897,"name":"웹디자인"},{"id":2186,"name":"디자이너"},{"id":66675,"name":"디렉터"}],"viewCount":5,"voteCount":0,"assentCount":0,"dissentCount":0,"noteCount":0,"scrapCount":0,"enabled":true,"choice":false,"dateCreated":"2024-05-13T11:16:18","anonymity":false,"displayAuthor":{"id":58611,"nickname":"키파","picture":"4318eca1ce9c4786ba59397017a5cd36","pictureType":"GRAVATAR","activityPoint":205,"withdraw":false,"positionDutyName":null},"category":{"code":"it","labelCode":"it.label","defaultLabel":"IT 행사","url":null,"parent":null,"children":null,"useEvaluate":true,"useSelectSolution":false,"visible":true,"adminOnly":false}},{"id":1499913,"title":"현직에 계신 분들의 도움이 필요합니다!! 설문조사 요청드립니다!","tags":[],"viewCount":265,"voteCount":-1,"assentCount":0,"dissentCount":1,"noteCount":3,"scrapCount":0,"enabled":true,"choice":false,"dateCreated":"2024-05-13T09:58:58","anonymity":false,"displayAuthor":{"id":148510,"nickname":"mrc_campus_D","picture":"2023/1693893581788.png","pictureType":"ATTACHED","activityPoint":1558,"withdraw":false,"positionDutyName":null},"category":{"code":"it","labelCode":"it.label","defaultLabel":"IT 행사","url":null,"parent":null,"children":null,"useEvaluate":true,"useSelectSolution":false,"visible":true,"adminOnly":false}},{"id":1499862,"title":"✅정규직 채용연계] 모던 웹 풀스택 개발자 실무과정","tags":[{"id":66668,"name":"강남프론트엔드국비지원"},{"id":14152,"name":"타입스크립트"},{"id":63939,"name":"리액트국비지원"}],"viewCount":6,"voteCount":1,"assentCount":1,"dissentCount":0,"noteCount":1,"scrapCount":0,"enabled":true,"choice":false,"dateCreated":"2024-05-12T17:15:49","anonymity":false,"displayAuthor":{"id":175803,"nickname":"이젠아카데미본사","picture":"2023/1699859659541.jpg","pictureType":"ATTACHED","activityPoint":884,"withdraw":false,"positionDutyName":null},"category":{"code":"it","labelCode":"it.label","defaultLabel":"IT 행사","url":null,"parent":null,"children":null,"useEvaluate":true,"useSelectSolution":false,"visible":true,"adminOnly":false}},{"id":1499861,"title":"✅[GS ITM X 대한상공회의소 X 이젠아카데미 풀스택 부트캠프4기 모집]","tags":[{"id":65865,"name":"풀스택국비지원학원"},{"id":65917,"name":"백엔드국비지원학원"},{"id":48874,"name":"개발자부트캠프"}],"viewCount":7,"voteCount":1,"assentCount":1,"dissentCount":0,"noteCount":1,"scrapCount":0,"enabled":true,"choice":false,"dateCreated":"2024-05-12T17:14:14","anonymity":false,"displayAuthor":{"id":175803,"nickname":"이젠아카데미본사","picture":"2023/1699859659541.jpg","pictureType":"ATTACHED","activityPoint":884,"withdraw":false,"positionDutyName":null},"category":{"code":"it","labelCode":"it.label","defaultLabel":"IT 행사","url":null,"parent":null,"children":null,"useEvaluate":true,"useSelectSolution":false,"visible":true,"adminOnly":false}},{"id":1499716,"title":"[IT입문 무료 세미나] 에 초대합니다.","tags":[{"id":4224,"name":"kg아이티뱅크"},{"id":6126,"name":"kgitbank"},{"id":6125,"name":"kgit뱅크"},{"id":971,"name":"아이티뱅크"},{"id":16363,"name":"it세미나"},{"id":3171,"name":"세미나"}],"viewCount":20,"voteCount":0,"assentCount":0,"dissentCount":0,"noteCount":0,"scrapCount":0,"enabled":true,"choice":false,"dateCreated":"2024-05-10T15:15:47","anonymity":false,"displayAuthor":{"id":34156,"nickname":"아뱅","picture":"6b7844d678bb93ba8f265dc2f098217e","pictureType":"GRAVATAR","activityPoint":31636,"withdraw":false,"positionDutyName":null},"category":{"code":"it","labelCode":"it.label","defaultLabel":"IT 행사","url":null,"parent":null,"children":null,"useEvaluate":true,"useSelectSolution":false,"visible":true,"adminOnly":false}},{"id":1499715,"title":"[★고용노동부 5년인증 우수훈련기관] K-디지털트레이닝 신기술 IT 실무 인재 양성 모집","tags":[],"viewCount":12,"voteCount":0,"assentCount":0,"dissentCount":0,"noteCount":0,"scrapCount":0,"enabled":true,"choice":false,"dateCreated":"2024-05-10T15:13:44","anonymity":false,"displayAuthor":{"id":33554,"nickname":"아이티윌 부산교육센터","picture":"b54f5a80a720148fd99268d8e839ed42","pictureType":"GRAVATAR","activityPoint":9968,"withdraw":false,"positionDutyName":null},"category":{"code":"it","labelCode":"it.label","defaultLabel":"IT 행사","url":null,"parent":null,"children":null,"useEvaluate":true,"useSelectSolution":false,"visible":true,"adminOnly":false}},{"id":1499699,"title":"2024년 고위 여성 리더십 과정 (2차)","tags":[{"id":2139,"name":"여성"},{"id":59334,"name":"리더십"},{"id":40439,"name":"경력개발자"}],"viewCount":12,"voteCount":0,"assentCount":0,"dissentCount":0,"noteCount":0,"scrapCount":0,"enabled":true,"choice":false,"dateCreated":"2024-05-10T14:31:19","anonymity":false,"displayAuthor":{"id":184962,"nickname":"위셋","picture":"8e74ce36ad28e4e6e463ca2afe1e43e2","pictureType":"GRAVATAR","activityPoint":20,"withdraw":false,"positionDutyName":null},"category":{"code":"it","labelCode":"it.label","defaultLabel":"IT 행사","url":null,"parent":null,"children":null,"useEvaluate":true,"useSelectSolution":false,"visible":true,"adminOnly":false}},{"id":1499698,"title":"2024년 재직자 실무역량 강화를 위한 온라인 과정 2차","tags":[{"id":1295,"name":"재직자"},{"id":265,"name":"무료교육"},{"id":6449,"name":"온라인"}],"viewCount":10,"voteCount":0,"assentCount":0,"dissentCount":0,"noteCount":0,"scrapCount":0,"enabled":true,"choice":false,"dateCreated":"2024-05-10T14:30:36","anonymity":false,"displayAuthor":{"id":184962,"nickname":"위셋","picture":"8e74ce36ad28e4e6e463ca2afe1e43e2","pictureType":"GRAVATAR","activityPoint":20,"withdraw":false,"positionDutyName":null},"category":{"code":"it","labelCode":"it.label","defaultLabel":"IT 행사","url":null,"parent":null,"children":null,"useEvaluate":true,"useSelectSolution":false,"visible":true,"adminOnly":false}},{"id":1499628,"title":"[추천대외활동][채용연계] 신세계아이앤씨 JAVA 백엔드 교육 과정!(~6/4)","tags":[],"viewCount":17,"voteCount":0,"assentCount":0,"dissentCount":0,"noteCount":0,"scrapCount":0,"enabled":true,"choice":false,"dateCreated":"2024-05-10T09:26:09","anonymity":false,"displayAuthor":{"id":48320,"nickname":"씽굿","picture":"7964f8437ac3ed8328ddda0c2c8bb2e8","pictureType":"GRAVATAR","activityPoint":2556,"withdraw":false,"positionDutyName":null},"category":{"code":"it","labelCode":"it.label","defaultLabel":"IT 행사","url":null,"parent":null,"children":null,"useEvaluate":true,"useSelectSolution":false,"visible":true,"adminOnly":false}},{"id":1499559,"title":"AI 컨퍼런스 'SAC 2024 - 증강 인류시대의 서막'에 여러분을 초대합니다!","tags":[],"viewCount":99,"voteCount":0,"assentCount":0,"dissentCount":0,"noteCount":1,"scrapCount":0,"enabled":true,"choice":false,"dateCreated":"2024-05-09T16:41:23","anonymity":false,"displayAuthor":{"id":184889,"nickname":"솔트룩스","picture":"https://phinf.pstatic.net/contact/20190509_152/15573818901288Jaot_JPEG/image.jpg","pictureType":"NAVER","activityPoint":10,"withdraw":false,"positionDutyName":null},"category":{"code":"it","labelCode":"it.label","defaultLabel":"IT 행사","url":null,"parent":null,"children":null,"useEvaluate":true,"useSelectSolution":false,"visible":true,"adminOnly":false}},{"id":1499534,"title":"현직에 계신 분들의 도움이 필요합니다!! 설문조사 요청드립니다!","tags":[],"viewCount":375,"voteCount":-5,"assentCount":0,"dissentCount":5,"noteCount":1,"scrapCount":0,"enabled":true,"choice":false,"dateCreated":"2024-05-09T15:03:58","anonymity":false,"displayAuthor":{"id":148510,"nickname":"mrc_campus_D","picture":"2023/1693893581788.png","pictureType":"ATTACHED","activityPoint":1558,"withdraw":false,"positionDutyName":null},"category":{"code":"it","labelCode":"it.label","defaultLabel":"IT 행사","url":null,"parent":null,"children":null,"useEvaluate":true,"useSelectSolution":false,"visible":true,"adminOnly":false}},{"id":1499533,"title":"[스타벅스 기프티콘 지급] 신입 및 경력개발자 관련 설문조사","tags":[],"viewCount":29,"voteCount":0,"assentCount":0,"dissentCount":0,"noteCount":0,"scrapCount":0,"enabled":true,"choice":false,"dateCreated":"2024-05-09T15:02:46","anonymity":false,"displayAuthor":{"id":148510,"nickname":"mrc_campus_D","picture":"2023/1693893581788.png","pictureType":"ATTACHED","activityPoint":1558,"withdraw":false,"positionDutyName":null},"category":{"code":"it","labelCode":"it.label","defaultLabel":"IT 행사","url":null,"parent":null,"children":null,"useEvaluate":true,"useSelectSolution":false,"visible":true,"adminOnly":false}},{"id":1499489,"title":"[스타벅스 기프티콘 지급] 신입 및 경력개발자 관련 설문조사 부탁드립니다!","tags":[],"viewCount":14,"voteCount":0,"assentCount":0,"dissentCount":0,"noteCount":0,"scrapCount":0,"enabled":true,"choice":false,"dateCreated":"2024-05-09T10:58:51","anonymity":false,"displayAuthor":{"id":148510,"nickname":"mrc_campus_D","picture":"2023/1693893581788.png","pictureType":"ATTACHED","activityPoint":1558,"withdraw":false,"positionDutyName":null},"category":{"code":"it","labelCode":"it.label","defaultLabel":"IT 행사","url":null,"parent":null,"children":null,"useEvaluate":true,"useSelectSolution":false,"visible":true,"adminOnly":false}},{"id":1499323,"title":"제8회 개방형 클라우드 플랫폼(K-PaaS) 기반 서비스 개발 아이디어 공모전","tags":[],"viewCount":14,"voteCount":0,"assentCount":0,"dissentCount":0,"noteCount":0,"scrapCount":0,"enabled":true,"choice":false,"dateCreated":"2024-05-08T09:58:18","anonymity":false,"displayAuthor":{"id":124415,"nickname":"개방형클라우드플랫폼센터","picture":"3532f4783c2c3ec726fc5efebf896257","pictureType":"GRAVATAR","activityPoint":70,"withdraw":false,"positionDutyName":null},"category":{"code":"it","labelCode":"it.label","defaultLabel":"IT 행사","url":null,"parent":null,"children":null,"useEvaluate":true,"useSelectSolution":false,"visible":true,"adminOnly":false}},{"id":1499226,"title":"✨2024년 메타버스 개발자 경진대회 참가팀 모집✨","tags":[],"viewCount":152,"voteCount":0,"assentCount":0,"dissentCount":0,"noteCount":1,"scrapCount":0,"enabled":true,"choice":false,"dateCreated":"2024-05-07T15:23:24","anonymity":false,"displayAuthor":{"id":184714,"nickname":"labboycampus","picture":"d3d76666bfd79b45f34d3da1e48d67ff","pictureType":"GRAVATAR","activityPoint":10,"withdraw":false,"positionDutyName":null},"category":{"code":"it","labelCode":"it.label","defaultLabel":"IT 행사","url":null,"parent":null,"children":null,"useEvaluate":true,"useSelectSolution":false,"visible":true,"adminOnly":false}},{"id":1499107,"title":"[마감 임박] 2024 코드살롱 봄 시즌 IT 개발자 컨퍼런스에 여러분들을 초대합니다.","tags":[{"id":561,"name":"컨퍼런스"},{"id":26554,"name":"지식공유"},{"id":48657,"name":"함께자라기"},{"id":66615,"name":"치맥타임"}],"viewCount":220,"voteCount":0,"assentCount":0,"dissentCount":0,"noteCount":2,"scrapCount":0,"enabled":true,"choice":false,"dateCreated":"2024-05-06T17:05:35","anonymity":false,"displayAuthor":{"id":179801,"nickname":"supxyrho","picture":"b3f99933ee11f63d87dfa77fa3318854","pictureType":"GRAVATAR","activityPoint":57,"withdraw":false,"positionDutyName":null},"category":{"code":"it","labelCode":"it.label","defaultLabel":"IT 행사","url":null,"parent":null,"children":null,"useEvaluate":true,"useSelectSolution":false,"visible":true,"adminOnly":false}}],"pageable":{"pageNumber":0,"pageSize":20,"sort":{"empty":false,"sorted":true,"unsorted":false},"offset":0,"paged":true,"unpaged":false},"totalPages":121,"totalElements":2413,"last":false,"size":20,"number":0,"sort":{"empty":false,"sorted":true,"unsorted":false},"numberOfElements":20,"first":true,"empty":false},"SEO":{"title":"OKKY - IT 행사","description":"OKKY는 국내 최대 개발자 지식공유 플랫폼입니다. 개발자에게 필요한 기술 Q\u0026A, 아티클, 커리어, 네트워킹, 취업, IT행사를 지원합니다","additionalMetaTags":[{"httpEquiv":"content-type","content":"text/html; charset=UTF-8"},{"httpEquiv":"x-ua-compatible","content":"IE=edge,chrome=1"},{"name":"viewport","content":"width=device-width, initial-scale=1.0, user-scalable=no"},{"name":"msapplication-TileImage","content":"https://okky.kr/apple-touch-icons/icon-144x144.png"},{"name":"msapplication-TileColor","content":"#0090F9"},{"name":"theme-color","content":"#0090F9"}],"additionalLinkTags":[{"rel":"shortcut icon","href":"/favicon.ico"},{"rel":"apple-touch-icon","sizes":"57x57","href":"/apple-touch-icons/icon-57x57.png"},{"rel":"apple-touch-icon","sizes":"60x60","href":"/apple-touch-icons/icon-60x60.png"},{"rel":"apple-touch-icon","sizes":"72x72","href":"/apple-touch-icons/icon-72x72.png"},{"rel":"apple-touch-icon","sizes":"76x76","href":"/apple-touch-icons/icon-76x76.png"},{"rel":"apple-touch-icon","sizes":"114x114","href":"/apple-touch-icons/icon-114x114.png"},{"rel":"apple-touch-icon","sizes":"120x120","href":"/apple-touch-icons/icon-120x120.png"},{"rel":"apple-touch-icon","sizes":"144x144","href":"/apple-touch-icons/icon-144x144.png"},{"rel":"apple-touch-icon","sizes":"152x152","href":"/apple-touch-icons/icon-152x152.png"},{"rel":"apple-touch-icon","sizes":"180x180","href":"/apple-touch-icons/icon-180x180.png"},{"rel":"apple-touch-startup-image","media":"screen and (device-width: 430px) and (device-height: 932px) and (-webkit-device-pixel-ratio: 3) and (orientation: portrait)","href":"/splash-screens/iPhone_15_Pro_Max__iPhone_15_Plus__iPhone_14_Pro_Max_portrait.png"},{"rel":"apple-touch-startup-image","media":"screen and (device-width: 393px) and (device-height: 852px) and (-webkit-device-pixel-ratio: 3) and (orientation: portrait)","href":"/splash-screens/iPhone_15_Pro__iPhone_15__iPhone_14_Pro_portrait.png"},{"rel":"apple-touch-startup-image","media":"screen and (device-width: 428px) and (device-height: 926px) and (-webkit-device-pixel-ratio: 3) and (orientation: portrait)","href":"/splash-screens/iPhone_14_Plus__iPhone_13_Pro_Max__iPhone_12_Pro_Max_portrait.png"},{"rel":"apple-touch-startup-image","media":"screen and (device-width: 390px) and (device-height: 844px) and (-webkit-device-pixel-ratio: 3) and (orientation: portrait)","href":"/splash-screens/iPhone_14__iPhone_13_Pro__iPhone_13__iPhone_12_Pro__iPhone_12_portrait.png"},{"rel":"apple-touch-startup-image","media":"screen and (device-width: 375px) and (device-height: 812px) and (-webkit-device-pixel-ratio: 3) and (orientation: portrait)","href":"/splash-screens/iPhone_13_mini__iPhone_12_mini__iPhone_11_Pro__iPhone_XS__iPhone_X_portrait.png"},{"rel":"apple-touch-startup-image","media":"screen and (device-width: 414px) and (device-height: 896px) and (-webkit-device-pixel-ratio: 3) and (orientation: portrait)","href":"/splash-screens/iPhone_11_Pro_Max__iPhone_XS_Max_portrait.png"},{"rel":"apple-touch-startup-image","media":"screen and (device-width: 414px) and (device-height: 896px) and (-webkit-device-pixel-ratio: 2) and (orientation: portrait)","href":"/splash-screens/iPhone_11__iPhone_XR_portrait.png"},{"rel":"apple-touch-startup-image","media":"screen and (device-width: 414px) and (device-height: 736px) and (-webkit-device-pixel-ratio: 3) and (orientation: portrait)","href":"/splash-screens/iPhone_8_Plus__iPhone_7_Plus__iPhone_6s_Plus__iPhone_6_Plus_portrait.png"},{"rel":"apple-touch-startup-image","media":"screen and (device-width: 375px) and (device-height: 667px) and (-webkit-device-pixel-ratio: 2) and (orientation: portrait)","href":"/splash-screens/iPhone_8__iPhone_7__iPhone_6s__iPhone_6__4.7__iPhone_SE_portrait.png"},{"rel":"apple-touch-startup-image","media":"screen and (device-width: 320px) and (device-height: 568px) and (-webkit-device-pixel-ratio: 2) and (orientation: portrait)","href":"/splash-screens/4__iPhone_SE__iPod_touch_5th_generation_and_later_portrait.png"},{"rel":"apple-touch-startup-image","media":"screen and (device-width: 1024px) and (device-height: 1366px) and (-webkit-device-pixel-ratio: 2) and (orientation: portrait)","href":"/splash-screens/12.9__iPad_Pro_portrait.png"},{"rel":"apple-touch-startup-image","media":"screen and (device-width: 834px) and (device-height: 1194px) and (-webkit-device-pixel-ratio: 2) and (orientation: portrait)","href":"/splash-screens/11__iPad_Pro__10.5__iPad_Pro_portrait.png"},{"rel":"apple-touch-startup-image","media":"screen and (device-width: 820px) and (device-height: 1180px) and (-webkit-device-pixel-ratio: 2) and (orientation: portrait)","href":"/splash-screens/10.9__iPad_Air_portrait.png"},{"rel":"apple-touch-startup-image","media":"screen and (device-width: 834px) and (device-height: 1112px) and (-webkit-device-pixel-ratio: 2) and (orientation: portrait)","href":"/splash-screens/10.5__iPad_Air_portrait.png"},{"rel":"apple-touch-startup-image","media":"screen and (device-width: 810px) and (device-height: 1080px) and (-webkit-device-pixel-ratio: 2) and (orientation: portrait)","href":"/splash-screens/10.2__iPad_portrait.png"},{"rel":"apple-touch-startup-image","media":"screen and (device-width: 768px) and (device-height: 1024px) and (-webkit-device-pixel-ratio: 2) and (orientation: portrait)","href":"/splash-screens/9.7__iPad_Pro__7.9__iPad_mini__9.7__iPad_Air__9.7__iPad_portrait.png"},{"rel":"apple-touch-startup-image","media":"screen and (device-width: 744px) and (device-height: 1133px) and (-webkit-device-pixel-ratio: 2) and (orientation: portrait)","href":"/splash-screens/8.3__iPad_Mini_portrait.png"}],"openGraph":{"type":"website","title":"OKKY - IT 행사","url":"https://okky.kr/it"},"twitter":{"cardType":"summary_large_image"}}},"__N_SSP":true},"page":"/events/[topic]","query":{"topic":"it"},"buildId":"hpiAIXlOX9OgGb6Z4tSEB","isFallback":false,"gssp":true,"appGip":true,"scriptLoader":[{"strategy":"afterInteractive","src":"https://www.googletagmanager.com/gtag/js?id=G-YB6VRG1VMM"},{"strategy":"afterInteractive","dangerouslySetInnerHTML":{"__html":"\n            window.dataLayer = window.dataLayer || [];\n            function gtag(){dataLayer.push(arguments);}\n            gtag('js', new Date());\n            gtag('config', 'G-YB6VRG1VMM');\n          "}}]}</script></body></html>